{
    "uniqueModClassName":"data.scripts.elder.world.ElderSectorGen", # String
    "factionNiceName":"Relics", # String
    "playableFaction":"true", # Boolean

    "stationInteriorIllustrationKeys":["cargo_loading"], # String array

    "changeSystemSpecsOnSystemLockdown":"false", # Boolean
    "preferredBackgroundImagePath":"", # String
    "preferredStarType":"", # String
    "preferredStarLight":"", # String, 0xFFFFFF

    "stationNameSuffixes":["Base", "Orbital", "Trading Post", "HQ", "Post", "Dock", "Mantle", "Ledge", "Customs", "Port", "Quey", "Terminal", "Exchange", "View", "Wall", "Habitat", "Shipyard"], # String array

    "crewExpereinceLevelIncreaseChance":0.0, # Double, 0 - 1.0
    "baseFleetCostMultiplier":1.0, # Double

    "customRebelFaction":"", # String
    "customRebelFleetId":"", # String
    "rebelFleetSuffix":"Splinter Group", # String

    "smallAttackFleetName":"Scout", # String
    "mediumAttackFleetName":"Task Force", # String
    "largeAttackFleetName":"Battle Group", # String

    "smallDefenceFleetName":"Picket Defense", # String
    "mediumDefenceFleetName":"Security Squadron", # String
    "largeDefenceFleetName":"Warders", # String

    "smallPatrolFleetName":"Lookout", # String
    "mediumPatrolFleetName":"Patrol Detachment", # String
    "largePatrolFleetName":"Enforcement Fleet", # String

    "asteroidMiningFleetName":"Asteroid Mining Fleet", # String
    "gasMiningFleetName":"Gas Mining Fleet", # String
    "logisticsFleetName":"Logistics Convoy", # String
    "boardingFleetName":"Boarding Fleet", # String
    "commandFleetName":"Command Fleet", # String

    "positiveDiplomacyExtra":0, # Integer
    "negativeDiplomacyExtra":0, # Integer
    "factionsLiked":[], # String array
    "factionsDisliked":[], # String array

    "freighterVariants":[], # String array
    "tankerVariants":[], # String array
    "miningVariantsOrWings":[], # String array

    "troopTransportVariants":[], # String array
    "superFreighterVariants":[], # String array

    "carrierVariants":[], # String array

    "fighterWings":[], # String array
    "frigateVariants":[], # String array
    "destroyerVariants":[], # String array
    "cruiserVariants":[], # String array
    "capitalVariants":[], # String array

    "startingVariants":["relics_egler_Standard", "relics_pusher_Standard", "relics_solver_Standard"], # String array
}