{
	"version":2.0,
	
	"initialStepsToRun":200,
	"maxExoticUtilityAtRange":14000,
	"defaultConnectionMult":1,
	"defaultConnectionFlat":1,
	"defaultTariff":0.3,
	
	"starSystems":[

	],
	
	"map":"../starmap.json",

}